{
	"log": {
		"version": "1.2",
		"creator": {
			"name": "Insomnia REST Client",
			"version": "insomnia.desktop.app:v12.2.0"
		},
		"entries": [
			{
				"startedDateTime": "2025-12-22T16:11:49.240Z",
				"time": 19.324,
				"request": {
					"method": "GET",
					"url": "http://127.0.0.1:8081/api/produtos",
					"httpVersion": "HTTP/1.1",
					"cookies": [],
					"headers": [
						{
							"name": "Accept",
							"value": "application/json"
						},
						{
							"name": "Content-type",
							"value": "application/json"
						},
						{
							"name": "User-Agent",
							"value": "insomnia/10.3.1"
						}
					],
					"queryString": [],
					"postData": {
						"mimeType": "",
						"text": ""
					},
					"headersSize": -1,
					"bodySize": -1
				},
				"response": {
					"status": 200,
					"statusText": "OK",
					"httpVersion": "HTTP/1.1",
					"cookies": [],
					"headers": [
						{
							"name": "Host",
							"value": "127.0.0.1:8081"
						},
						{
							"name": "Connection",
							"value": "close"
						},
						{
							"name": "X-Powered-By",
							"value": "PHP/8.4.14"
						},
						{
							"name": "Cache-Control",
							"value": "no-cache, private"
						},
						{
							"name": "Date",
							"value": "Mon, 22 Dec 2025 14:45:33 GMT"
						},
						{
							"name": "Content-Type",
							"value": "application/json"
						},
						{
							"name": "Access-Control-Allow-Origin",
							"value": "*"
						}
					],
					"content": {
						"size": 3412,
						"mimeType": "application/json",
						"text": "{\"current_page\":1,\"data\":[{\"id\":1,\"nome\":\"veritatis\",\"descricao\":\"Ut cumque sequi unde rerum sint in.\",\"preco\":\"19.07\",\"estoque\":30,\"created_at\":\"2025-12-22T14:23:31.000000Z\",\"updated_at\":\"2025-12-22T14:23:31.000000Z\"},{\"id\":2,\"nome\":\"et\",\"descricao\":\"Laborum labore ipsam ea perferendis placeat architecto omnis.\",\"preco\":\"624.02\",\"estoque\":69,\"created_at\":\"2025-12-22T14:23:31.000000Z\",\"updated_at\":\"2025-12-22T14:23:31.000000Z\"},{\"id\":3,\"nome\":\"aliquam\",\"descricao\":\"Est atque quod soluta error est.\",\"preco\":\"975.64\",\"estoque\":13,\"created_at\":\"2025-12-22T14:23:31.000000Z\",\"updated_at\":\"2025-12-22T14:23:31.000000Z\"},{\"id\":4,\"nome\":\"optio\",\"descricao\":\"Nisi est nobis quibusdam dolores minus aut dolorum.\",\"preco\":\"920.68\",\"estoque\":41,\"created_at\":\"2025-12-22T14:23:31.000000Z\",\"updated_at\":\"2025-12-22T14:23:31.000000Z\"},{\"id\":5,\"nome\":\"amet\",\"descricao\":\"Earum et rerum molestiae quidem est.\",\"preco\":\"83.08\",\"estoque\":2,\"created_at\":\"2025-12-22T14:23:31.000000Z\",\"updated_at\":\"2025-12-22T14:23:31.000000Z\"},{\"id\":6,\"nome\":\"dolor\",\"descricao\":\"Aliquam et maiores provident dignissimos.\",\"preco\":\"370.08\",\"estoque\":18,\"created_at\":\"2025-12-22T14:23:31.000000Z\",\"updated_at\":\"2025-12-22T14:23:31.000000Z\"},{\"id\":7,\"nome\":\"soluta\",\"descricao\":\"Minima in veniam dolorem totam.\",\"preco\":\"111.17\",\"estoque\":26,\"created_at\":\"2025-12-22T14:23:31.000000Z\",\"updated_at\":\"2025-12-22T14:23:31.000000Z\"},{\"id\":8,\"nome\":\"deleniti\",\"descricao\":\"Ad eaque eius numquam occaecati rerum impedit.\",\"preco\":\"72.41\",\"estoque\":98,\"created_at\":\"2025-12-22T14:23:31.000000Z\",\"updated_at\":\"2025-12-22T14:23:31.000000Z\"},{\"id\":9,\"nome\":\"aliquid\",\"descricao\":\"Quisquam dolore eveniet ratione minus facere.\",\"preco\":\"867.13\",\"estoque\":64,\"created_at\":\"2025-12-22T14:23:31.000000Z\",\"updated_at\":\"2025-12-22T14:23:31.000000Z\"},{\"id\":10,\"nome\":\"sunt\",\"descricao\":\"Expedita omnis sequi ea maxime nesciunt dignissimos amet.\",\"preco\":\"803.37\",\"estoque\":74,\"created_at\":\"2025-12-22T14:23:31.000000Z\",\"updated_at\":\"2025-12-22T14:23:31.000000Z\"}],\"first_page_url\":\"http:\\/\\/127.0.0.1:8081\\/api\\/produtos?page=1\",\"from\":1,\"last_page\":11,\"last_page_url\":\"http:\\/\\/127.0.0.1:8081\\/api\\/produtos?page=11\",\"links\":[{\"url\":null,\"label\":\"&laquo; Previous\",\"active\":false},{\"url\":\"http:\\/\\/127.0.0.1:8081\\/api\\/produtos?page=1\",\"label\":\"1\",\"active\":true},{\"url\":\"http:\\/\\/127.0.0.1:8081\\/api\\/produtos?page=2\",\"label\":\"2\",\"active\":false},{\"url\":\"http:\\/\\/127.0.0.1:8081\\/api\\/produtos?page=3\",\"label\":\"3\",\"active\":false},{\"url\":\"http:\\/\\/127.0.0.1:8081\\/api\\/produtos?page=4\",\"label\":\"4\",\"active\":false},{\"url\":\"http:\\/\\/127.0.0.1:8081\\/api\\/produtos?page=5\",\"label\":\"5\",\"active\":false},{\"url\":\"http:\\/\\/127.0.0.1:8081\\/api\\/produtos?page=6\",\"label\":\"6\",\"active\":false},{\"url\":\"http:\\/\\/127.0.0.1:8081\\/api\\/produtos?page=7\",\"label\":\"7\",\"active\":false},{\"url\":\"http:\\/\\/127.0.0.1:8081\\/api\\/produtos?page=8\",\"label\":\"8\",\"active\":false},{\"url\":\"http:\\/\\/127.0.0.1:8081\\/api\\/produtos?page=9\",\"label\":\"9\",\"active\":false},{\"url\":\"http:\\/\\/127.0.0.1:8081\\/api\\/produtos?page=10\",\"label\":\"10\",\"active\":false},{\"url\":\"http:\\/\\/127.0.0.1:8081\\/api\\/produtos?page=11\",\"label\":\"11\",\"active\":false},{\"url\":\"http:\\/\\/127.0.0.1:8081\\/api\\/produtos?page=2\",\"label\":\"Next &raquo;\",\"active\":false}],\"next_page_url\":\"http:\\/\\/127.0.0.1:8081\\/api\\/produtos?page=2\",\"path\":\"http:\\/\\/127.0.0.1:8081\\/api\\/produtos\",\"per_page\":10,\"prev_page_url\":null,\"to\":10,\"total\":101}"
					},
					"redirectURL": "",
					"headersSize": -1,
					"bodySize": -1
				},
				"cache": {},
				"timings": {
					"blocked": -1,
					"dns": -1,
					"connect": -1,
					"send": 0,
					"wait": 19.324,
					"receive": 0,
					"ssl": -1
				},
				"comment": "index"
			},
			{
				"startedDateTime": "2025-12-22T16:11:49.240Z",
				"time": 16.6,
				"request": {
					"method": "GET",
					"url": "http://127.0.0.1:8081/api/produtos/1",
					"httpVersion": "HTTP/1.1",
					"cookies": [],
					"headers": [
						{
							"name": "User-Agent",
							"value": "insomnia/10.3.1"
						}
					],
					"queryString": [],
					"postData": {
						"mimeType": "",
						"text": ""
					},
					"headersSize": -1,
					"bodySize": -1
				},
				"response": {
					"status": 200,
					"statusText": "OK",
					"httpVersion": "HTTP/1.1",
					"cookies": [],
					"headers": [
						{
							"name": "Host",
							"value": "127.0.0.1:8081"
						},
						{
							"name": "Connection",
							"value": "close"
						},
						{
							"name": "X-Powered-By",
							"value": "PHP/8.4.14"
						},
						{
							"name": "Cache-Control",
							"value": "no-cache, private"
						},
						{
							"name": "Date",
							"value": "Mon, 22 Dec 2025 14:25:32 GMT"
						},
						{
							"name": "Content-Type",
							"value": "application/json"
						},
						{
							"name": "Access-Control-Allow-Origin",
							"value": "*"
						}
					],
					"content": {
						"size": 192,
						"mimeType": "application/json",
						"text": "{\"id\":1,\"nome\":\"veritatis\",\"descricao\":\"Ut cumque sequi unde rerum sint in.\",\"preco\":\"19.07\",\"estoque\":30,\"created_at\":\"2025-12-22T14:23:31.000000Z\",\"updated_at\":\"2025-12-22T14:23:31.000000Z\"}"
					},
					"redirectURL": "",
					"headersSize": -1,
					"bodySize": -1
				},
				"cache": {},
				"timings": {
					"blocked": -1,
					"dns": -1,
					"connect": -1,
					"send": 0,
					"wait": 16.6,
					"receive": 0,
					"ssl": -1
				},
				"comment": "show"
			},
			{
				"startedDateTime": "2025-12-22T16:11:49.240Z",
				"time": 14.951,
				"request": {
					"method": "GET",
					"url": "http://127.0.0.1:8081/api/produtos?nome=vent&per_page=5",
					"httpVersion": "HTTP/1.1",
					"cookies": [],
					"headers": [
						{
							"name": "User-Agent",
							"value": "insomnia/10.3.1"
						}
					],
					"queryString": [],
					"postData": {
						"mimeType": "",
						"text": ""
					},
					"headersSize": -1,
					"bodySize": -1
				},
				"response": {
					"status": 200,
					"statusText": "OK",
					"httpVersion": "HTTP/1.1",
					"cookies": [],
					"headers": [
						{
							"name": "Host",
							"value": "127.0.0.1:8081"
						},
						{
							"name": "Connection",
							"value": "close"
						},
						{
							"name": "X-Powered-By",
							"value": "PHP/8.4.14"
						},
						{
							"name": "Cache-Control",
							"value": "no-cache, private"
						},
						{
							"name": "Date",
							"value": "Mon, 22 Dec 2025 14:31:36 GMT"
						},
						{
							"name": "Content-Type",
							"value": "application/json"
						},
						{
							"name": "Access-Control-Allow-Origin",
							"value": "*"
						}
					],
					"content": {
						"size": 897,
						"mimeType": "application/json",
						"text": "{\"current_page\":1,\"data\":[{\"id\":11,\"nome\":\"inventore\",\"descricao\":\"Atque aut iste et molestiae aut atque minima.\",\"preco\":\"739.07\",\"estoque\":68,\"created_at\":\"2025-12-22T14:23:31.000000Z\",\"updated_at\":\"2025-12-22T14:23:31.000000Z\"},{\"id\":42,\"nome\":\"inventore\",\"descricao\":\"Itaque ea voluptatum sequi et unde.\",\"preco\":\"243.15\",\"estoque\":66,\"created_at\":\"2025-12-22T14:23:31.000000Z\",\"updated_at\":\"2025-12-22T14:23:31.000000Z\"}],\"first_page_url\":\"http:\\/\\/127.0.0.1:8081\\/api\\/produtos?page=1\",\"from\":1,\"last_page\":1,\"last_page_url\":\"http:\\/\\/127.0.0.1:8081\\/api\\/produtos?page=1\",\"links\":[{\"url\":null,\"label\":\"&laquo; Previous\",\"active\":false},{\"url\":\"http:\\/\\/127.0.0.1:8081\\/api\\/produtos?page=1\",\"label\":\"1\",\"active\":true},{\"url\":null,\"label\":\"Next &raquo;\",\"active\":false}],\"next_page_url\":null,\"path\":\"http:\\/\\/127.0.0.1:8081\\/api\\/produtos\",\"per_page\":5,\"prev_page_url\":null,\"to\":2,\"total\":2}"
					},
					"redirectURL": "",
					"headersSize": -1,
					"bodySize": -1
				},
				"cache": {},
				"timings": {
					"blocked": -1,
					"dns": -1,
					"connect": -1,
					"send": 0,
					"wait": 14.951,
					"receive": 0,
					"ssl": -1
				},
				"comment": "filter"
			},
			{
				"startedDateTime": "2025-12-22T16:11:49.240Z",
				"time": 36.984,
				"request": {
					"method": "POST",
					"url": "http://127.0.0.1:8081/api/produtos",
					"httpVersion": "HTTP/1.1",
					"cookies": [],
					"headers": [
						{
							"name": "Accept",
							"value": "application/json"
						},
						{
							"name": "Content-Type",
							"value": "application/json"
						},
						{
							"name": "User-Agent",
							"value": "insomnia/10.3.1"
						},
						{
							"name": "Authorization",
							"value": "Bearer 1|dlezPqrMvjcLztGApzi5c6mTIGA0zFzQX0cJ8Ovpd30a80c2"
						}
					],
					"queryString": [
						{
							"name": "",
							"value": ""
						}
					],
					"postData": {
						"mimeType": "application/json",
						"text": "{\n \"nome\": \"Celular\",\n \"descricao\": \"Smartphone 5G\",\n \"preco\": 2999.99,\n \"estoque\": 15\n}\n"
					},
					"headersSize": -1,
					"bodySize": -1
				},
				"response": {
					"status": 201,
					"statusText": "Created",
					"httpVersion": "HTTP/1.1",
					"cookies": [],
					"headers": [
						{
							"name": "Host",
							"value": "127.0.0.1:8081"
						},
						{
							"name": "Connection",
							"value": "close"
						},
						{
							"name": "X-Powered-By",
							"value": "PHP/8.4.14"
						},
						{
							"name": "Cache-Control",
							"value": "no-cache, private"
						},
						{
							"name": "Date",
							"value": "Mon, 22 Dec 2025 14:45:28 GMT"
						},
						{
							"name": "Content-Type",
							"value": "application/json"
						},
						{
							"name": "Access-Control-Allow-Origin",
							"value": "*"
						}
					],
					"content": {
						"size": 222,
						"mimeType": "application/json",
						"text": "{\"mensagem\":\"Produto Criado com Sucesso\",\"produto\":{\"nome\":\"Celular\",\"descricao\":\"Smartphone 5G\",\"preco\":2999.99,\"estoque\":15,\"updated_at\":\"2025-12-22T14:45:28.000000Z\",\"created_at\":\"2025-12-22T14:45:28.000000Z\",\"id\":101}}"
					},
					"redirectURL": "",
					"headersSize": -1,
					"bodySize": -1
				},
				"cache": {},
				"timings": {
					"blocked": -1,
					"dns": -1,
					"connect": -1,
					"send": 0,
					"wait": 36.984,
					"receive": 0,
					"ssl": -1
				},
				"comment": "store"
			},
			{
				"startedDateTime": "2025-12-22T16:11:49.240Z",
				"time": 0,
				"request": {
					"method": "PUT",
					"url": "http://127.0.0.1:8081/api/produtos/22",
					"httpVersion": "HTTP/1.1",
					"cookies": [],
					"headers": [
						{
							"name": "Content-Type",
							"value": "application/json"
						},
						{
							"name": "User-Agent",
							"value": "insomnia/10.3.1"
						},
						{
							"name": "Authorization",
							"value": "Bearer 6|jWham3yj4gSZFzV2suMtKrAujX8r5caojTSjcgvS7683b520"
						}
					],
					"queryString": [
						{
							"name": "",
							"value": ""
						}
					],
					"postData": {
						"mimeType": "application/json",
						"text": "{\n\t\"nome\": \"Carro\",\n\t\"descricao\": \"Carro de brinquedo\",\n\t\"preco\": \"29.99\",\n\t\"estoque\": \"5\"\n}"
					},
					"headersSize": -1,
					"bodySize": -1
				},
				"response": {
					"status": 0,
					"statusText": "",
					"httpVersion": "HTTP/1.1",
					"cookies": [],
					"headers": [],
					"content": {
						"size": 0,
						"mimeType": ""
					},
					"redirectURL": "",
					"headersSize": -1,
					"bodySize": -1
				},
				"cache": {},
				"timings": {
					"blocked": -1,
					"dns": -1,
					"connect": -1,
					"send": 0,
					"wait": 0,
					"receive": 0,
					"ssl": -1
				},
				"comment": "update"
			},
			{
				"startedDateTime": "2025-12-22T16:11:49.240Z",
				"time": 0,
				"request": {
					"method": "DELETE",
					"url": "http://127.0.0.1:8081/api/produtos/23",
					"httpVersion": "HTTP/1.1",
					"cookies": [],
					"headers": [
						{
							"name": "Content-Type",
							"value": "application/json"
						},
						{
							"name": "User-Agent",
							"value": "insomnia/10.3.1"
						},
						{
							"name": "Authorization",
							"value": "Bearer 3|6ANRpuEDyTMa8MVRaP6jsjJ192ATYlO6JiiuDfY225dc"
						}
					],
					"queryString": [
						{
							"name": "",
							"value": ""
						}
					],
					"postData": {
						"mimeType": "application/json",
						"text": ""
					},
					"headersSize": -1,
					"bodySize": -1
				},
				"response": {
					"status": 0,
					"statusText": "",
					"httpVersion": "HTTP/1.1",
					"cookies": [],
					"headers": [],
					"content": {
						"size": 0,
						"mimeType": ""
					},
					"redirectURL": "",
					"headersSize": -1,
					"bodySize": -1
				},
				"cache": {},
				"timings": {
					"blocked": -1,
					"dns": -1,
					"connect": -1,
					"send": 0,
					"wait": 0,
					"receive": 0,
					"ssl": -1
				},
				"comment": "delete"
			},
			{
				"startedDateTime": "2025-12-22T16:11:49.240Z",
				"time": 341.656,
				"request": {
					"method": "POST",
					"url": "http://127.0.0.1:8081/api/registro",
					"httpVersion": "HTTP/1.1",
					"cookies": [],
					"headers": [
						{
							"name": "Content-Type",
							"value": "application/json"
						},
						{
							"name": "User-Agent",
							"value": "insomnia/10.3.1"
						}
					],
					"queryString": [
						{
							"name": "",
							"value": ""
						}
					],
					"postData": {
						"mimeType": "application/json",
						"text": "{\n\t\"name\": \"test\",\n\t\"email\": \"teste@email.com\",\n\t\"password\": \"teste123\",\n\t\"password_confirmation\": \"teste123\"\n}"
					},
					"headersSize": -1,
					"bodySize": -1
				},
				"response": {
					"status": 200,
					"statusText": "OK",
					"httpVersion": "HTTP/1.1",
					"cookies": [],
					"headers": [
						{
							"name": "Host",
							"value": "127.0.0.1:8081"
						},
						{
							"name": "Connection",
							"value": "close"
						},
						{
							"name": "X-Powered-By",
							"value": "PHP/8.4.14"
						},
						{
							"name": "Cache-Control",
							"value": "no-cache, private"
						},
						{
							"name": "Date",
							"value": "Mon, 22 Dec 2025 14:44:28 GMT"
						},
						{
							"name": "Content-Type",
							"value": "application/json"
						},
						{
							"name": "Access-Control-Allow-Origin",
							"value": "*"
						}
					],
					"content": {
						"size": 204,
						"mimeType": "application/json",
						"text": "{\"user\":{\"name\":\"test\",\"email\":\"teste@email.com\",\"updated_at\":\"2025-12-22T14:44:28.000000Z\",\"created_at\":\"2025-12-22T14:44:28.000000Z\",\"id\":2},\"token\":\"1|dlezPqrMvjcLztGApzi5c6mTIGA0zFzQX0cJ8Ovpd30a80c2\"}"
					},
					"redirectURL": "",
					"headersSize": -1,
					"bodySize": -1
				},
				"cache": {},
				"timings": {
					"blocked": -1,
					"dns": -1,
					"connect": -1,
					"send": 0,
					"wait": 341.656,
					"receive": 0,
					"ssl": -1
				},
				"comment": "registro"
			},
			{
				"startedDateTime": "2025-12-22T16:11:49.240Z",
				"time": 192.458,
				"request": {
					"method": "POST",
					"url": "http://127.0.0.1:8081/api/login",
					"httpVersion": "HTTP/1.1",
					"cookies": [],
					"headers": [
						{
							"name": "Content-Type",
							"value": "application/json"
						},
						{
							"name": "User-Agent",
							"value": "insomnia/10.3.1"
						}
					],
					"queryString": [
						{
							"name": "",
							"value": ""
						}
					],
					"postData": {
						"mimeType": "application/json",
						"text": "{\n\t\"email\": \"teste@email.com\",\n\t\"password\": \"teste123\"\n}"
					},
					"headersSize": -1,
					"bodySize": -1
				},
				"response": {
					"status": 200,
					"statusText": "OK",
					"httpVersion": "HTTP/1.1",
					"cookies": [],
					"headers": [
						{
							"name": "Host",
							"value": "127.0.0.1:8081"
						},
						{
							"name": "Connection",
							"value": "close"
						},
						{
							"name": "X-Powered-By",
							"value": "PHP/8.4.14"
						},
						{
							"name": "Cache-Control",
							"value": "no-cache, private"
						},
						{
							"name": "Date",
							"value": "Mon, 22 Dec 2025 14:46:09 GMT"
						},
						{
							"name": "Content-Type",
							"value": "application/json"
						},
						{
							"name": "Access-Control-Allow-Origin",
							"value": "*"
						}
					],
					"content": {
						"size": 229,
						"mimeType": "application/json",
						"text": "{\"user\":{\"id\":2,\"name\":\"test\",\"email\":\"teste@email.com\",\"email_verified_at\":null,\"created_at\":\"2025-12-22T14:44:28.000000Z\",\"updated_at\":\"2025-12-22T14:44:28.000000Z\"},\"token\":\"2|GMFzCOjMfJpkYasBa7eJFP2TKEaf8Sg0bva9Jpwoec7c1c9b\"}"
					},
					"redirectURL": "",
					"headersSize": -1,
					"bodySize": -1
				},
				"cache": {},
				"timings": {
					"blocked": -1,
					"dns": -1,
					"connect": -1,
					"send": 0,
					"wait": 192.458,
					"receive": 0,
					"ssl": -1
				},
				"comment": "login"
			},
			{
				"startedDateTime": "2025-12-22T16:11:49.240Z",
				"time": 0,
				"request": {
					"method": "POST",
					"url": "http://127.0.0.1:8081/api/logout",
					"httpVersion": "HTTP/1.1",
					"cookies": [],
					"headers": [
						{
							"name": "Content-Type",
							"value": "application/json"
						},
						{
							"name": "User-Agent",
							"value": "insomnia/10.3.1"
						},
						{
							"name": "Authorization",
							"value": "Bearer 1|dlezPqrMvjcLztGApzi5c6mTIGA0zFzQX0cJ8Ovpd30a80c2"
						}
					],
					"queryString": [],
					"postData": {
						"mimeType": "application/json",
						"text": ""
					},
					"headersSize": -1,
					"bodySize": -1
				},
				"response": {
					"status": 0,
					"statusText": "",
					"httpVersion": "HTTP/1.1",
					"cookies": [],
					"headers": [],
					"content": {
						"size": 0,
						"mimeType": ""
					},
					"redirectURL": "",
					"headersSize": -1,
					"bodySize": -1
				},
				"cache": {},
				"timings": {
					"blocked": -1,
					"dns": -1,
					"connect": -1,
					"send": 0,
					"wait": 0,
					"receive": 0,
					"ssl": -1
				},
				"comment": "logout"
			}
		]
	}
}